{"page":1,"total_results":40857,"total_pages":2043,"results":[{"vote_count":6261,"id":269149,"video":false,"vote_average":7.7,"title":"Zootopia","popularity":326.331527,"poster_path":"\/sM33SANp9z6rXW8Itn7NnG1GOEs.jpg","original_language":"en","original_title":"Zootopia","genre_ids":[16,12,10751,35],"backdrop_path":"\/mhdeE1yShHTaDbJVdWyTlzFvNkr.jpg","adult":false,"overview":"Determined to prove herself, Officer Judy Hopps, the first bunny on Zootopia's police force, jumps at the chance to crack her first case - even if it means partnering with scam-artist fox Nick Wilde to solve the mystery.","release_date":"2016-02-11"},{"vote_count":2805,"id":343668,"video":false,"vote_average":7,"title":"Kingsman: The Golden Circle","popularity":266.729679,"poster_path":"\/34xBL6BXNYFqtHO9zhcgoakS4aP.jpg","original_language":"en","original_title":"Kingsman: The Golden Circle","genre_ids":[28,12,35],"backdrop_path":"\/uExPmkOHJySrbJyJDJylHDqaT58.jpg","adult":false,"overview":"When an attack on the Kingsman headquarters takes place and a new villain rises, Eggsy and Merlin are forced to work together with the American agency known as the Statesman to save the world.","release_date":"2017-09-20"},{"vote_count":4217,"id":216015,"video":false,"vote_average":5.3,"title":"Fifty Shades of Grey","popularity":260.659593,"poster_path":"\/jV8wnk3Jgz6f7degmT3lHNGI2tK.jpg","original_language":"en","original_title":"Fifty Shades of Grey","genre_ids":[18,10749,53],"backdrop_path":"\/zAd0MjURkOvJynIsqmLMBcICxUt.jpg","adult":false,"overview":"When college senior Anastasia Steele steps in for her sick roommate to interview prominent businessman Christian Grey for their campus paper, little does she realize the path her life will take. Christian, as enigmatic as he is rich and powerful, finds himself strangely drawn to Ana, and she to him. Though sexually inexperienced, Ana plunges headlong into an affair -- and learns that Christian's true sexual proclivities push the boundaries of pain and pleasure.","release_date":"2015-02-11"},{"vote_count":5019,"id":374720,"video":false,"vote_average":7.4,"title":"Dunkirk","popularity":258.980597,"poster_path":"\/ebSnODDg9lbsMIaWg2uAbjn7TO5.jpg","original_language":"en","original_title":"Dunkirk","genre_ids":[28,18,36,53,10752],"backdrop_path":"\/4yjJNAgXBmzxpS6sogj4ftwd270.jpg","adult":false,"overview":"The story of the miraculous evacuation of Allied soldiers from Belgium, Britain, Canada and France, who were cut off and surrounded by the German army from the beaches and harbour of Dunkirk between May 26th and June 4th 1940 during World War II.","release_date":"2017-07-19"},{"vote_count":166,"id":441614,"video":false,"vote_average":4.4,"title":"Loving","popularity":236.497038,"poster_path":"\/6uOMVZ6oG00xjq0KQiExRBw2s3P.jpg","original_language":"es","original_title":"Amar","genre_ids":[10749],"backdrop_path":"\/iBM6zvlOmcfodGhUa36sy7pM2Er.jpg","adult":false,"overview":"Laura and Carlos love each other as if every day was the last, and perhaps that first love intensity is what will tear them apart a year later.","release_date":"2017-04-21"},{"vote_count":3288,"id":281338,"video":false,"vote_average":6.8,"title":"War for the Planet of the Apes","popularity":209.573921,"poster_path":"\/3vYhLLxrTtZLysXtIWktmd57Snv.jpg","original_language":"en","original_title":"War for the Planet of the Apes","genre_ids":[18,878,10752],"backdrop_path":"\/ulMscezy9YX0bhknvJbZoUgQxO5.jpg","adult":false,"overview":"Caesar and his apes are forced into a deadly conflict with an army of humans led by a ruthless Colonel. After the apes suffer unimaginable losses, Caesar wrestles with his darker instincts and begins his own mythic quest to avenge his kind. As the journey finally brings them face to face, Caesar and the Colonel are pitted against each other in an epic battle that will determine the fate of both their species and the future of the planet.","release_date":"2017-07-11"},{"vote_count":2960,"id":214756,"video":false,"vote_average":6.2,"title":"Ted 2","popularity":177.060356,"poster_path":"\/A7HtCxFe7Ms8H7e7o2zawppbuDT.jpg","original_language":"en","original_title":"Ted 2","genre_ids":[35],"backdrop_path":"\/nkwoiSVJLeK0NI8kTqioBna61bm.jpg","adult":false,"overview":"Newlywed couple Ted and Tami-Lynn want to have a baby, but in order to qualify to be a parent, Ted will have to prove he's a person in a court of law.","release_date":"2015-06-25"},{"vote_count":124,"id":335777,"video":false,"vote_average":5.8,"title":"The Nut Job 2: Nutty by Nature","popularity":168.498076,"poster_path":"\/xOfdQHNF9TlrdujyAjiKfUhxSXy.jpg","original_language":"en","original_title":"The Nut Job 2: Nutty by Nature","genre_ids":[10751,16,12,35],"backdrop_path":"\/bd1X5nNrrAHVGG0MxsAeCOPPh1w.jpg","adult":false,"overview":"When the evil mayor of Oakton decides to bulldoze Liberty Park and build a dangerous amusement park in its place, Surly Squirrel and his ragtag group of animal friends need to band together to save their home, defeat the mayor, and take back the park.","release_date":"2017-08-11"},{"vote_count":3043,"id":258489,"video":false,"vote_average":5.6,"title":"The Legend of Tarzan","popularity":167.277748,"poster_path":"\/6FxOPJ9Ysilpq0IgkrMJ7PubFhq.jpg","original_language":"en","original_title":"The Legend of Tarzan","genre_ids":[28,12],"backdrop_path":"\/pWNBPN8ghaKtGLcQBMwNyM32Wbm.jpg","adult":false,"overview":"Tarzan, having acclimated to life in London, is called back to his former home in the jungle to investigate the activities at a mining encampment.","release_date":"2016-06-29"},{"vote_count":8347,"id":99861,"video":false,"vote_average":7.3,"title":"Avengers: Age of Ultron","popularity":165.940327,"poster_path":"\/t90Y3G8UGQp0f0DrP60wRu9gfrH.jpg","original_language":"en","original_title":"Avengers: Age of Ultron","genre_ids":[28,12,878],"backdrop_path":"\/vXIrvKadue7GdySiVh3huoQZiMi.jpg","adult":false,"overview":"When Tony Stark tries to jumpstart a dormant peacekeeping program, things go awry and Earth’s Mightiest Heroes are put to the ultimate test as the fate of the planet hangs in the balance. As the villainous Ultron emerges, it is up to The Avengers to stop him from enacting his terrible plans, and soon uneasy alliances and unexpected action pave the way for an epic and unique global adventure.","release_date":"2015-04-22"},{"vote_count":3405,"id":315837,"video":false,"vote_average":5.9,"title":"Ghost in the Shell","popularity":163.358807,"poster_path":"\/myRzRzCxdfUWjkJWgpHHZ1oGkJd.jpg","original_language":"en","original_title":"Ghost in the Shell","genre_ids":[28,878,53],"backdrop_path":"\/jGPSVArC0GS2VVc0aGAqGTjfFOG.jpg","adult":false,"overview":"In the near future, Major is the first of her kind: a human saved from a terrible crash, then cyber-enhanced to be a perfect soldier devoted to stopping the world's most dangerous criminals.","release_date":"2017-03-29"},{"vote_count":7588,"id":284052,"video":false,"vote_average":7.2,"title":"Doctor Strange","popularity":150.439642,"poster_path":"\/4PiiNGXj1KENTmCBHeN6Mskj2Fq.jpg","original_language":"en","original_title":"Doctor Strange","genre_ids":[28,12,14,878],"backdrop_path":"\/tFI8VLMgSTTU38i8TIsklfqS9Nl.jpg","adult":false,"overview":"After his career is destroyed, a brilliant but arrogant surgeon gets a new lease on life when a sorcerer takes him under his wing and trains him to defend the world against evil.","release_date":"2016-10-25"},{"vote_count":2179,"id":341013,"video":false,"vote_average":6.1,"title":"Atomic Blonde","popularity":147.00193,"poster_path":"\/kV9R5h0Yct1kR8Hf8sJ1nX0Vz4x.jpg","original_language":"en","original_title":"Atomic Blonde","genre_ids":[28,9648,53],"backdrop_path":"\/lj3wkYkJGkfmDfXkKrVarSJpFD4.jpg","adult":false,"overview":"An undercover MI6 agent is sent to Berlin during the Cold War to investigate the murder of a fellow agent and recover a missing list of double agents.","release_date":"2017-07-26"},{"vote_count":7461,"id":321612,"video":false,"vote_average":6.8,"title":"Beauty and the Beast","popularity":145.385822,"poster_path":"\/tWqifoYuwLETmmasnGHO7xBjEtt.jpg","original_language":"en","original_title":"Beauty and the Beast","genre_ids":[10751,14,10749],"backdrop_path":"\/6aUWe0GSl69wMTSWWexsorMIvwU.jpg","adult":false,"overview":"A live-action adaptation of Disney's version of the classic tale of a cursed prince and a beautiful young woman who helps him break the spell.","release_date":"2017-03-16"},{"vote_count":137,"id":339404,"video":false,"vote_average":4.9,"title":"The Layover","popularity":142.534231,"poster_path":"\/kb9osnqanXRpkpm1bnSqAhKoq5T.jpg","original_language":"en","original_title":"The Layover","genre_ids":[35],"backdrop_path":"\/ibianpvL865w7rBPAg3sPlEXUyh.jpg","adult":false,"overview":"When their plane is rerouted due to a hurricane warning, two single female best friends find themselves competing for the same guy during an extended layover in St. Louis.","release_date":"2017-09-01"},{"vote_count":6782,"id":346364,"video":false,"vote_average":7.1,"title":"It","popularity":141.738832,"poster_path":"\/9E2y5Q7WlCVNEhP5GiVTjhEhx1o.jpg","original_language":"en","original_title":"It","genre_ids":[18,27,53],"backdrop_path":"\/tcheoA2nPATCm2vvXw2hVQoaEFD.jpg","adult":false,"overview":"In a small town in Maine, seven children known as The Losers Club come face to face with life problems, bullies and a monster that takes the shape of a clown called Pennywise.","release_date":"2017-09-05"},{"vote_count":2660,"id":339846,"video":false,"vote_average":6.1,"title":"Baywatch","popularity":138.218493,"poster_path":"\/6HE4xd8zloDqmjMZuhUCCw2UcY1.jpg","original_language":"en","original_title":"Baywatch","genre_ids":[28,35],"backdrop_path":"\/t6TL7V9IsT4Ktx6YO8b1UYj3agd.jpg","adult":false,"overview":"Devoted lifeguard Mitch Buchannon butts heads with a brash new recruit. Together, they uncover a local criminal plot that threatens the future of the Bay.","release_date":"2017-05-12"},{"vote_count":3453,"id":335984,"video":false,"vote_average":7.4,"title":"Blade Runner 2049","popularity":134.880207,"poster_path":"\/gajva2L0rPYkEWjzgFlBXCAVBE5.jpg","original_language":"en","original_title":"Blade Runner 2049","genre_ids":[9648,878,53],"backdrop_path":"\/mVr0UiqyltcfqxbAUcLl9zWL8ah.jpg","adult":false,"overview":"Thirty years after the events of the first film, a new blade runner, LAPD Officer K, unearths a long-buried secret that has the potential to plunge what's left of society into chaos. K's discovery leads him on a quest to find Rick Deckard, a former LAPD blade runner who has been missing for 30 years.","release_date":"2017-10-04"},{"vote_count":255,"id":347882,"video":false,"vote_average":5.2,"title":"Sleight","popularity":131.115728,"poster_path":"\/wridRvGxDqGldhzAIh3IcZhHT5F.jpg","original_language":"en","original_title":"Sleight","genre_ids":[18,53,28,878],"backdrop_path":"\/2SEgJ0mHJ7TSdVDbkGU061tR33K.jpg","adult":false,"overview":"A young street magician is left to take care of his little sister after his mother's passing and turns to drug dealing in the Los Angeles party scene to keep a roof over their heads. When he gets into trouble with his supplier, his sister is kidnapped and he is forced to rely on both his sleight of hand and brilliant mind to save her.","release_date":"2017-04-28"},{"vote_count":1621,"id":390043,"video":false,"vote_average":6.7,"title":"The Hitman's Bodyguard","popularity":131.012425,"poster_path":"\/5CGjlz2vyBhW5xHW4eNOZIdgzYq.jpg","original_language":"en","original_title":"The Hitman's Bodyguard","genre_ids":[28,35],"backdrop_path":"\/7KsqfXDECZMryX1Rv4RKsT7SIjQ.jpg","adult":false,"overview":"The world's top bodyguard gets a new client, a hit man who must testify at the International Court of Justice. They must put their differences aside and work together to make it to the trial on time.","release_date":"2017-08-16"}]}